<?xml version="1.0" encoding="UTF-8" standalone="no"?>
<svg width="332px" height="476px" viewBox="0 0 332 476" version="1.1" xmlns="http://www.w3.org/2000/svg" xmlns:xlink="http://www.w3.org/1999/xlink">
    <!-- Generator: Sketch 40.3 (33839) - http://www.bohemiancoding.com/sketch -->
    <title>certificate</title>
    <desc>Created with Sketch.</desc>
    <defs>
        <rect id="path-1" x="49" y="29" width="234" height="403"></rect>
        <filter x="-50%" y="-50%" width="200%" height="200%" filterUnits="objectBoundingBox" id="filter-2">
            <feOffset dx="0" dy="8" in="SourceAlpha" result="shadowOffsetOuter1"></feOffset>
            <feGaussianBlur stdDeviation="7" in="shadowOffsetOuter1" result="shadowBlurOuter1"></feGaussianBlur>
            <feColorMatrix values="0 0 0 0 0   0 0 0 0 0   0 0 0 0 0  0 0 0 0.1 0" type="matrix" in="shadowBlurOuter1" result="shadowMatrixOuter1"></feColorMatrix>
            <feOffset dx="0" dy="3" in="SourceAlpha" result="shadowOffsetOuter2"></feOffset>
            <feGaussianBlur stdDeviation="1.5" in="shadowOffsetOuter2" result="shadowBlurOuter2"></feGaussianBlur>
            <feColorMatrix values="0 0 0 0 0   0 0 0 0 0   0 0 0 0 0  0 0 0 0.1 0" type="matrix" in="shadowBlurOuter2" result="shadowMatrixOuter2"></feColorMatrix>
            <feMerge>
                <feMergeNode in="shadowMatrixOuter1"></feMergeNode>
                <feMergeNode in="shadowMatrixOuter2"></feMergeNode>
            </feMerge>
        </filter>
    </defs>
    <g id="Page-1" stroke="none" stroke-width="1" fill="none" fill-rule="evenodd">
        <g id="certificate">
            <g id="Rectangle">
                <use fill="black" fill-opacity="1" filter="url(#filter-2)" xlink:href="#path-1"></use>
                <use fill="#FFFFFF" fill-rule="evenodd" xlink:href="#path-1"></use>
            </g>
            <rect id="Rectangle-2" fill="#E4E4E4" x="72" y="58" width="187" height="9"></rect>
            <rect id="Rectangle-2-Copy-4" fill="#E4E4E4" x="72" y="332" width="153" height="9"></rect>
            <rect id="Rectangle-2-Copy" fill="#E4E4E4" x="72" y="78" width="144" height="9"></rect>
            <rect id="Rectangle-2-Copy-5" fill="#E4E4E4" x="72" y="352" width="119" height="9"></rect>
            <rect id="Rectangle-2-Copy-2" fill="#E4E4E4" x="72" y="98" width="170" height="9"></rect>
            <rect id="Rectangle-2-Copy-6" fill="#E4E4E4" x="72" y="372" width="187" height="9"></rect>
            <rect id="Rectangle-2-Copy-3" fill="#E4E4E4" x="72" y="118" width="131" height="9"></rect>
            <rect id="Rectangle-2-Copy-7" fill="#E4E4E4" x="72" y="392" width="166" height="9"></rect>
            <path d="M77,180 L256.577434,180" id="Path-4" stroke="#D4D4D4" stroke-width="2" stroke-dasharray="2,4"></path>
            <path d="M77,201 L256.577434,201" id="Path-4-Copy" stroke="#D4D4D4" stroke-width="2" stroke-dasharray="2,4"></path>
            <path d="M77,223 L256.577434,223" id="Path-4-Copy-2" stroke="#D4D4D4" stroke-width="2" stroke-dasharray="2,4"></path>
            <path d="M77,244 L256.577434,244" id="Path-4-Copy-3" stroke="#D4D4D4" stroke-width="2" stroke-dasharray="2,4"></path>
            <path d="M77,266 L256.577434,266" id="Path-4-Copy-4" stroke="#D4D4D4" stroke-width="2" stroke-dasharray="2,4"></path>
            <path d="M77,287 L256.577434,287" id="Path-4-Copy-5" stroke="#D4D4D4" stroke-width="2" stroke-dasharray="2,4"></path>
            <path d="M73.6640625,157 L257.277083,157" id="Path-2" stroke="#BDBDBD" stroke-width="2"></path>
            <path d="M161,164.53125 L161,298.19864" id="Path-3" stroke="#BDBDBD" stroke-width="2"></path>
            <path d="M83.5833333,224.333333 L78.7116667,224.333333 L76.985,222.668333 C83.0283333,215.638333 86.6666667,206.511667 86.6666667,196.583333 C86.6666667,174.445 68.7216667,156.5 46.5833333,156.5 C24.445,156.5 6.5,174.445 6.5,196.583333 C6.5,218.721667 24.445,236.666667 46.5833333,236.666667 C56.5116667,236.666667 65.6383333,233.028333 72.6683333,226.985 L74.3333333,228.711667 L74.3333333,233.583333 L105.166667,264.355 L114.355,255.166667 L83.5833333,224.333333 L83.5833333,224.333333 Z M46.5833333,224.333333 C31.2283333,224.333333 18.8333333,211.938333 18.8333333,196.583333 C18.8333333,181.228333 31.2283333,168.833333 46.5833333,168.833333 C61.9383333,168.833333 74.3333333,181.228333 74.3333333,196.583333 C74.3333333,211.938333 61.9383333,224.333333 46.5833333,224.333333 L46.5833333,224.333333 Z" id="Shape" fill="#676767"></path>
        </g>
    </g>
</svg>