<?xml version="1.0" encoding="UTF-8" standalone="no"?>
<svg width="32px" height="32px" viewBox="0 0 32 32" version="1.1" xmlns="http://www.w3.org/2000/svg" xmlns:xlink="http://www.w3.org/1999/xlink">
    <!-- Generator: Sketch 41 (35326) - http://www.bohemiancoding.com/sketch -->
    <title>Artboard</title>
    <desc>Created with Sketch.</desc>
    <defs></defs>
    <g id="Page-1" stroke="none" stroke-width="1" fill="none" fill-rule="evenodd">
        <g id="Artboard">
            <g id="Group" transform="translate(9.000000, 8.000000)">
                <path d="M11.8711864,9.91281553 C11.7127119,11.0142395 11.2516949,12.2873139 10.1135593,13.26 C9.19152542,14.0324272 7.90932203,14.6332039 5.69067797,14.6332039 C2.78050847,14.6332039 0.302542373,12.6449191 0.086440678,10.3133333 C-3.88578059e-16,9.41216828 0.331355932,8.55391586 1.09491525,7.69566343 C1.91610169,6.75158576 3.02542373,6.37967638 4.03389831,6.0363754 C3.73135593,5.34977346 3.42881356,4.6202589 3.35677966,3.74770227 C3.16949153,1.55915858 4.62457627,0.0858252427 6.7279661,0.0858252427 C8.54322034,0.0858252427 9.96949153,1.15864078 10.1135593,2.78932039 L8.47118644,2.73210356 C8.38474576,1.78802589 7.69322034,1.17294498 6.82881356,1.17294498 C6.16610169,1.17294498 4.97033898,1.65928803 5.12881356,3.44731392 C5.20084746,4.34847896 5.57542373,5.00647249 5.82033898,5.50711974 L6.42542373,6.6371521 L4.69661017,7.36666667 C3.76016949,7.72427184 1.88728814,8.25352751 2.07457627,10.2132039 C2.21864407,11.8438835 4.06271186,13.2456958 6.07966102,13.1169579 C7.39067797,13.0311327 8.19745763,12.9023948 9.10508475,12.2444013 C9.62372881,11.8581877 10.6177966,11.18589 11.0788136,9.59812298 L11.8711864,9.91281553 Z" id="Shape" fill="#FFFFFF"></path>
                <path d="M16.9855932,1.8023301 C16.9855932,1.8023301 13.009322,3.11831715 11.1652542,4.53443366 C9.32118644,5.95055016 7.59237288,8.42517799 7.59237288,8.42517799 L16.9855932,1.8023301 Z" id="Shape" fill="#FBBA00"></path>
            </g>
        </g>
    </g>
</svg>